alembic==0.8.6
backports.shutil-get-terminal-size==1.0.0
bcrypt==2.0.0
cffi==1.7.0
click==6.6
decorator==4.0.10
Flask==0.11.1
Flask-Bcrypt==0.7.1
Flask-Login==0.3.2
Flask-Migrate==1.8.0
Flask-Script==2.0.5
Flask-SQLAlchemy==2.1
Flask-WTF==0.12
ipython==4.2.0
ipython-genutils==0.1.0
itsdangerous==0.24
Jinja2==2.8
Mako==1.0.4
MarkupSafe==0.23
pbr==1.10.0
pickleshare==0.7.2
pycparser==2.14
python-editor==1.0.1
simplegeneric==0.8.1
six==1.10.0
SQLAlchemy==1.0.13
sqlalchemy-migrate==0.10.0
sqlparse==0.1.19
Tempita==0.5.2
traitlets==4.2.1
virtualenv==15.0.2
Werkzeug==0.11.10
WTForms==2.1
